{
    "/openSearch/{entity_id}": {
        "get": {
            "operationId": 1,
            "summary": "",
            "description": "Search all events",
            "parameters": [
                {
                    "description": "",
                    "in": "path",
                    "name": "entity_id",
                    "required": true,
                    "schema": {
                        "type": "integer"
                    }
                },
                {
                    "description": "",
                    "in": "query",
                    "name": "tenant",
                    "example": "phpunittest2",
                    "required": false,
                    "schema": {
                        "type": "string"
                    }
                },
                {
                    "description": "Language letter code (depending on setup: en, es, de, ar, eng, spa, es_AR, en_US)",
                    "in": "header",
                    "name": "Accept-Language",
                    "example": "en",
                    "required": false,
                    "schema": {
                        "type": "string"
                    }
                },
                {
                    "description": "",
                    "in": "query",
                    "name": "text",
                    "example": "Another event exclusive",
                    "required": false,
                    "schema": {
                        "type": "string"
                    }
                },
                {
                    "description": "",
                    "in": "query",
                    "name": "tag",
                    "example": "tag2",
                    "required": false,
                    "schema": {
                        "type": "string"
                    }
                },
                {
                    "description": "",
                    "in": "query",
                    "name": "tag_esco_uris",
                    "example": "http://test.esco.uri/2",
                    "required": false,
                    "schema": {
                        "type": "string"
                    }
                },
                {
                    "description": "",
                    "in": "query",
                    "name": "user_level",
                    "example": "20",
                    "required": false,
                    "schema": {
                        "type": "string"
                    }
                },
                {
                    "description": "",
                    "in": "query",
                    "name": "has_exclusive_tag",
                    "example": "0",
                    "required": false,
                    "schema": {
                        "type": "string"
                    }
                },
                {
                    "description": "",
                    "in": "query",
                    "name": "exclusive_tags",
                    "example": "tag2",
                    "required": false,
                    "schema": {
                        "type": "string"
                    }
                },
                {
                    "description": "",
                    "in": "query",
                    "name": "sort_by",
                    "example": "total_price",
                    "required": false,
                    "schema": {
                        "type": "string"
                    }
                },
                {
                    "description": "",
                    "in": "query",
                    "name": "order",
                    "example": "desc",
                    "required": false,
                    "schema": {
                        "type": "string"
                    }
                },
                {
                    "description": "",
                    "in": "query",
                    "name": "plain_text",
                    "example": "Wordpress",
                    "required": false,
                    "schema": {
                        "type": "string"
                    }
                },
                {
                    "description": "",
                    "in": "query",
                    "name": "occupation_labels",
                    "example": "web developer",
                    "required": false,
                    "schema": {
                        "type": "string"
                    }
                },
                {
                    "description": "",
                    "in": "query",
                    "name": "skills_labels",
                    "example": "CSS",
                    "required": false,
                    "schema": {
                        "type": "string"
                    }
                },
                {
                    "description": "",
                    "in": "query",
                    "name": "skills_uris",
                    "example": "http://data.europa.eu/esco/skill/e5d1f825-60ed-4bdd-872a-e748c387f777",
                    "required": false,
                    "schema": {
                        "type": "string"
                    }
                }
            ],
            "tags": [
                "OpenSearch"
            ],
            "responses": {
                "200": {
                    "description": "OK",
                    "content": {
                        "application/json": {
                            "schema": {
                                "type": "object",
                                "description": "Search all events",
                                "properties": {
                                    "data": {
                                        "type": "object",
                                        "properties": {
                                            "took": {
                                                "type": "number",
                                                "example": 3
                                            },
                                            "timed_out": {
                                                "type": "boolean",
                                                "example": false
                                            },
                                            "_shards": {
                                                "type": "object",
                                                "properties": {
                                                    "total": {
                                                        "type": "number",
                                                        "example": 1
                                                    },
                                                    "successful": {
                                                        "type": "number",
                                                        "example": 1
                                                    },
                                                    "skipped": {
                                                        "type": "number",
                                                        "example": 0
                                                    },
                                                    "failed": {
                                                        "type": "number",
                                                        "example": 0
                                                    }
                                                }
                                            },
                                            "hits": {
                                                "type": "object",
                                                "properties": {
                                                    "total": {
                                                        "type": "object",
                                                        "properties": {
                                                            "value": {
                                                                "type": "number",
                                                                "example": 4
                                                            },
                                                            "relation": {
                                                                "type": "string",
                                                                "example": "eq"
                                                            }
                                                        }
                                                    },
                                                    "max_score": {
                                                        "type": "number",
                                                        "example": 28
                                                    },
                                                    "hits": {
                                                        "type": "array",
                                                        "items": {
                                                            "type": "object",
                                                            "properties": {
                                                                "_index": {
                                                                    "type": "string",
                                                                    "example": "phpunittest2"
                                                                },
                                                                "_id": {
                                                                    "type": "number",
                                                                    "example": 2
                                                                },
                                                                "_score": {
                                                                    "type": "number",
                                                                    "example": 28
                                                                },
                                                                "_source": {
                                                                    "type": "object",
                                                                    "properties": {
                                                                        "trainer_list": {
                                                                            "type": "array",
                                                                            "items": {
                                                                                "type": "object",
                                                                                "properties": {
                                                                                    "profile_pic": {
                                                                                        "type": "string",
                                                                                        "example": "https://trainer-pic-test.jpeg"
                                                                                    },
                                                                                    "fullname": {
                                                                                        "type": "string",
                                                                                        "example": "Trainer 1"
                                                                                    }
                                                                                }
                                                                            }
                                                                        },
                                                                        "provider_is_topseller": {
                                                                            "type": "boolean",
                                                                            "example": false
                                                                        },
                                                                        "next_course_date": {
                                                                            "type": "number",
                                                                            "example": 5000
                                                                        },
                                                                        "total_price": {
                                                                            "type": "number",
                                                                            "example": 50
                                                                        },
                                                                        "modules_avg_grade": {
                                                                            "type": "number",
                                                                            "example": 40
                                                                        },
                                                                        "rating": {
                                                                            "type": "number",
                                                                            "example": 0
                                                                        },
                                                                        "has_exclusive_tag": {
                                                                            "type": "boolean",
                                                                            "example": true
                                                                        },
                                                                        "is_bookable": {
                                                                            "type": "boolean",
                                                                            "example": true
                                                                        },
                                                                        "language": {
                                                                            "type": "string",
                                                                            "example": "en"
                                                                        },
                                                                        "title": {
                                                                            "type": "string",
                                                                            "example": "Brandpr\u00e4vention"
                                                                        },
                                                                        "tags": {
                                                                            "type": "array",
                                                                            "items": {
                                                                                "type": "object",
                                                                                "properties": {
                                                                                    "grade": {
                                                                                        "type": "number",
                                                                                        "example": 20
                                                                                    },
                                                                                    "tag": {
                                                                                        "type": "string",
                                                                                        "example": "tag2"
                                                                                    },
                                                                                    "esco_uri": {
                                                                                        "type": "string",
                                                                                        "example": "http://esco.uri.test"
                                                                                    },
                                                                                    "display_name": {
                                                                                        "type": "string",
                                                                                        "example": "tag 2"
                                                                                    }
                                                                                }
                                                                            }
                                                                        },
                                                                        "highlight": {
                                                                            "type": "string",
                                                                            "example": "Highlight event 2"
                                                                        },
                                                                        "provider": {
                                                                            "type": "object",
                                                                            "properties": {
                                                                                "name": {
                                                                                    "type": "string",
                                                                                    "example": "Provider 2"
                                                                                }
                                                                            }
                                                                        },
                                                                        "provider_is_verified": {
                                                                            "type": "boolean",
                                                                            "example": false
                                                                        },
                                                                        "id": {
                                                                            "type": "number",
                                                                            "example": 2
                                                                        },
                                                                        "categories": {
                                                                            "type": "array",
                                                                            "items": {
                                                                                "type": "object",
                                                                                "properties": {
                                                                                    "category": {
                                                                                        "type": "string",
                                                                                        "example": "category1"
                                                                                    },
                                                                                    "display_name": {
                                                                                        "type": "string",
                                                                                        "example": "category 1"
                                                                                    }
                                                                                }
                                                                            }
                                                                        },
                                                                        "rating_rounded": {
                                                                            "type": "number",
                                                                            "example": 0
                                                                        },
                                                                        "has_boost": {
                                                                            "type": "boolean",
                                                                            "example": true
                                                                        }
                                                                    }
                                                                }
                                                            }
                                                        }
                                                    }
                                                }
                                            },
                                            "aggregations": {
                                                "type": "object",
                                                "properties": {
                                                    "language.keyword": {
                                                        "type": "object",
                                                        "properties": {
                                                            "doc_count_error_upper_bound": {
                                                                "type": "number",
                                                                "example": 0
                                                            },
                                                            "sum_other_doc_count": {
                                                                "type": "number",
                                                                "example": 0
                                                            },
                                                            "buckets": {
                                                                "type": "array",
                                                                "items": {
                                                                    "type": "object",
                                                                    "properties": {
                                                                        "key": {
                                                                            "type": "string",
                                                                            "example": "de"
                                                                        },
                                                                        "doc_count": {
                                                                            "type": "number",
                                                                            "example": 2
                                                                        }
                                                                    }
                                                                }
                                                            }
                                                        }
                                                    },
                                                    "i18n_type.en.keyword": {
                                                        "type": "object",
                                                        "properties": {
                                                            "doc_count_error_upper_bound": {
                                                                "type": "number",
                                                                "example": 0
                                                            },
                                                            "sum_other_doc_count": {
                                                                "type": "number",
                                                                "example": 0
                                                            },
                                                            "buckets": {
                                                                "type": "array",
                                                                "items": {
                                                                    "type": "object"
                                                                }
                                                            }
                                                        }
                                                    },
                                                    "tags.display_name.keyword": {
                                                        "type": "object",
                                                        "properties": {
                                                            "doc_count_error_upper_bound": {
                                                                "type": "number",
                                                                "example": 0
                                                            },
                                                            "sum_other_doc_count": {
                                                                "type": "number",
                                                                "example": 0
                                                            },
                                                            "buckets": {
                                                                "type": "array",
                                                                "items": {
                                                                    "type": "object",
                                                                    "properties": {
                                                                        "key": {
                                                                            "type": "string",
                                                                            "example": "tag 2"
                                                                        },
                                                                        "doc_count": {
                                                                            "type": "number",
                                                                            "example": 3
                                                                        }
                                                                    }
                                                                }
                                                            }
                                                        }
                                                    },
                                                    "tags.grade": {
                                                        "type": "object",
                                                        "properties": {
                                                            "doc_count_error_upper_bound": {
                                                                "type": "number",
                                                                "example": 0
                                                            },
                                                            "sum_other_doc_count": {
                                                                "type": "number",
                                                                "example": 0
                                                            },
                                                            "buckets": {
                                                                "type": "array",
                                                                "items": {
                                                                    "type": "object",
                                                                    "properties": {
                                                                        "key": {
                                                                            "type": "number",
                                                                            "example": 10
                                                                        },
                                                                        "doc_count": {
                                                                            "type": "number",
                                                                            "example": 2
                                                                        }
                                                                    }
                                                                }
                                                            }
                                                        }
                                                    },
                                                    "categories.category.keyword": {
                                                        "type": "object",
                                                        "properties": {
                                                            "doc_count_error_upper_bound": {
                                                                "type": "number",
                                                                "example": 0
                                                            },
                                                            "sum_other_doc_count": {
                                                                "type": "number",
                                                                "example": 0
                                                            },
                                                            "buckets": {
                                                                "type": "array",
                                                                "items": {
                                                                    "type": "object",
                                                                    "properties": {
                                                                        "key": {
                                                                            "type": "string",
                                                                            "example": "category1"
                                                                        },
                                                                        "doc_count": {
                                                                            "type": "number",
                                                                            "example": 3
                                                                        }
                                                                    }
                                                                }
                                                            }
                                                        }
                                                    },
                                                    "provider.name.keyword": {
                                                        "type": "object",
                                                        "properties": {
                                                            "doc_count_error_upper_bound": {
                                                                "type": "number",
                                                                "example": 0
                                                            },
                                                            "sum_other_doc_count": {
                                                                "type": "number",
                                                                "example": 0
                                                            },
                                                            "buckets": {
                                                                "type": "array",
                                                                "items": {
                                                                    "type": "object",
                                                                    "properties": {
                                                                        "key": {
                                                                            "type": "string",
                                                                            "example": "Provider 3"
                                                                        },
                                                                        "doc_count": {
                                                                            "type": "number",
                                                                            "example": 2
                                                                        }
                                                                    }
                                                                }
                                                            }
                                                        }
                                                    },
                                                    "courses.i18n_city.city_name.en.keyword": {
                                                        "type": "object",
                                                        "properties": {
                                                            "doc_count_error_upper_bound": {
                                                                "type": "number",
                                                                "example": 0
                                                            },
                                                            "sum_other_doc_count": {
                                                                "type": "number",
                                                                "example": 0
                                                            },
                                                            "buckets": {
                                                                "type": "array",
                                                                "items": {
                                                                    "type": "object"
                                                                }
                                                            }
                                                        }
                                                    }
                                                }
                                            }
                                        }
                                    }
                                }
                            }
                        }
                    }
                }
            }
        }
    }
}
